…
Loading and preprocessing the data
==================================


```r
url <- "https://d396qusza40orc.cloudfront.net/repdata%2Fdata%2Factivity.zip"
download.file(url, "Factivity.zip", method = "auto")
unzip <- unzip("Factivity.zip")
activity <- read.csv(unzip)
activity <- tbl_df(activity)
activity
```

```
## # A tibble: 17,568 x 3
##    steps       date interval
##    <int>     <fctr>    <int>
##  1    NA 2012-10-01        0
##  2    NA 2012-10-01        5
##  3    NA 2012-10-01       10
##  4    NA 2012-10-01       15
##  5    NA 2012-10-01       20
##  6    NA 2012-10-01       25
##  7    NA 2012-10-01       30
##  8    NA 2012-10-01       35
##  9    NA 2012-10-01       40
## 10    NA 2012-10-01       45
## # ... with 17,558 more rows
```
…
